// Jest Snapshot v1, https://goo.gl/fbAQLP

exports[`Rendering map 1`] = `
<div
  className="map-container"
  style={
    Object {
      "height": "70vh",
      "width": "90%",
    }
  }
>
  <div
    onClick={[Function]}
    onMouseDownCapture={[Function]}
    onMouseMove={[Function]}
    style={
      Object {
        "height": "100%",
        "margin": 0,
        "padding": 0,
        "position": "relative",
        "width": "100%",
      }
    }
  >
    <div
      style={
        Object {
          "height": "100%",
          "left": 0,
          "margin": 0,
          "padding": 0,
          "position": "absolute",
          "top": 0,
          "width": "100%",
        }
      }
    />
    <div
      style={
        Object {
          "height": "50%",
          "left": "50%",
          "margin": 0,
          "padding": 0,
          "position": "absolute",
          "top": "50%",
          "width": "50%",
        }
      }
    >
      <div
        style={
          Object {
            "height": "100%",
            "left": 0,
            "margin": 0,
            "padding": 0,
            "position": "absolute",
            "top": 0,
            "width": "100%",
          }
        }
      />
    </div>
  </div>
</div>
`;
